%!PS-Adobe-3.0 EPSF-3.0
%%Creator: MATLAB, The MathWorks, Inc. Version 8.0.0.783 (R2012b). Operating System: Microsoft Windows 7.
%%Title: C:\Users\Paolo\Dropbox\Adaptive GSP\Matlab\MSD_iter_RLS.eps
%%CreationDate: 02/08/2017  16:25:10
%%DocumentNeededFonts: Helvetica
%%+ Times-Roman
%%DocumentProcessColors: Cyan Magenta Yellow Black
%%LanguageLevel: 2
%%Pages: 1
%%BoundingBox:    87   265   507   576
%%EndComments

%%BeginProlog
% MathWorks dictionary
/MathWorks 160 dict begin
% definition operators
/bdef {bind def} bind def
/ldef {load def} bind def
/xdef {exch def} bdef
/xstore {exch store} bdef
% operator abbreviations
/c  /clip ldef
/cc /concat ldef
/cp /closepath ldef
/gr /grestore ldef
/gs /gsave ldef
/mt /moveto ldef
/np /newpath ldef
/cm /currentmatrix ldef
/sm /setmatrix ldef
/rm /rmoveto ldef
/rl /rlineto ldef
/s {show newpath} bdef
/sc {setcmykcolor} bdef
/sr /setrgbcolor ldef
/sg /setgray ldef
/w /setlinewidth ldef
/j /setlinejoin ldef
/cap /setlinecap ldef
/rc {rectclip} bdef
/rf {rectfill} bdef
% page state control
/pgsv () def
/bpage {/pgsv save def} bdef
/epage {pgsv restore} bdef
/bplot /gsave ldef
/eplot {stroke grestore} bdef
% orientation switch
/portraitMode 0 def /landscapeMode 1 def /rotateMode 2 def
% coordinate system mappings
/dpi2point 0 def
% font control
/FontSize 0 def
/FMS {/FontSize xstore findfont [FontSize 0 0 FontSize neg 0 0]
  makefont setfont} bdef
/ISOLatin1Encoding where {pop /WindowsLatin1Encoding 256 array bdef
ISOLatin1Encoding WindowsLatin1Encoding copy pop
/.notdef/.notdef/quotesinglbase/florin/quotedblbase/ellipsis/dagger
/daggerdbl/circumflex/perthousand/Scaron/guilsinglleft/OE/.notdef/.notdef
/.notdef/.notdef/quoteleft/quoteright/quotedblleft/quotedblright/bullet
/endash/emdash/tilde/trademark/scaron/guilsinglright/oe/.notdef/.notdef
/Ydieresis WindowsLatin1Encoding 128 32 getinterval astore pop}
{/WindowsLatin1Encoding StandardEncoding bdef} ifelse
/reencode {exch dup where {pop load} {pop StandardEncoding} ifelse
  exch dup 3 1 roll findfont dup length dict begin
  { 1 index /FID ne {def}{pop pop} ifelse } forall
  /Encoding exch def currentdict end definefont pop} bdef
/isroman {findfont /CharStrings get /Agrave known} bdef
/FMSR {3 1 roll 1 index dup isroman {reencode} {pop pop} ifelse
  exch FMS} bdef
/csm {1 dpi2point div -1 dpi2point div scale neg translate
 dup landscapeMode eq {pop -90 rotate}
  {rotateMode eq {90 rotate} if} ifelse} bdef
% line types: solid, dotted, dashed, dotdash
/SO { [] 0 setdash } bdef
/DO { [.5 dpi2point mul 4 dpi2point mul] 0 setdash } bdef
/DA { [6 dpi2point mul] 0 setdash } bdef
/DD { [.5 dpi2point mul 4 dpi2point mul 6 dpi2point mul 4
  dpi2point mul] 0 setdash } bdef
% macros for lines and objects
/L {lineto stroke} bdef
/MP {3 1 roll moveto 1 sub {rlineto} repeat} bdef
/AP {{rlineto} repeat} bdef
/PDlw -1 def
/W {/PDlw currentlinewidth def setlinewidth} def
/PP {closepath eofill} bdef
/DP {closepath stroke} bdef
/MR {4 -2 roll moveto dup  0 exch rlineto exch 0 rlineto
  neg 0 exch rlineto closepath} bdef
/FR {MR stroke} bdef
/PR {MR fill} bdef
/L1i {{currentfile picstr readhexstring pop} image} bdef
/tMatrix matrix def
/MakeOval {newpath tMatrix currentmatrix pop translate scale
0 0 1 0 360 arc tMatrix setmatrix} bdef
/FO {MakeOval stroke} bdef
/PO {MakeOval fill} bdef
/PD {currentlinewidth 2 div 0 360 arc fill
   PDlw -1 eq not {PDlw w /PDlw -1 def} if} def
/FA {newpath tMatrix currentmatrix pop translate scale
  0 0 1 5 -2 roll arc tMatrix setmatrix stroke} bdef
/PA {newpath tMatrix currentmatrix pop	translate 0 0 moveto scale
  0 0 1 5 -2 roll arc closepath tMatrix setmatrix fill} bdef
/FAn {newpath tMatrix currentmatrix pop translate scale
  0 0 1 5 -2 roll arcn tMatrix setmatrix stroke} bdef
/PAn {newpath tMatrix currentmatrix pop translate 0 0 moveto scale
  0 0 1 5 -2 roll arcn closepath tMatrix setmatrix fill} bdef
/vradius 0 def /hradius 0 def /lry 0 def
/lrx 0 def /uly 0 def /ulx 0 def /rad 0 def
/MRR {/vradius xdef /hradius xdef /lry xdef /lrx xdef /uly xdef
  /ulx xdef newpath tMatrix currentmatrix pop ulx hradius add uly
  vradius add translate hradius vradius scale 0 0 1 180 270 arc 
  tMatrix setmatrix lrx hradius sub uly vradius add translate
  hradius vradius scale 0 0 1 270 360 arc tMatrix setmatrix
  lrx hradius sub lry vradius sub translate hradius vradius scale
  0 0 1 0 90 arc tMatrix setmatrix ulx hradius add lry vradius sub
  translate hradius vradius scale 0 0 1 90 180 arc tMatrix setmatrix
  closepath} bdef
/FRR {MRR stroke } bdef
/PRR {MRR fill } bdef
/MlrRR {/lry xdef /lrx xdef /uly xdef /ulx xdef /rad lry uly sub 2 div def
  newpath tMatrix currentmatrix pop ulx rad add uly rad add translate
  rad rad scale 0 0 1 90 270 arc tMatrix setmatrix lrx rad sub lry rad
  sub translate rad rad scale 0 0 1 270 90 arc tMatrix setmatrix
  closepath} bdef
/FlrRR {MlrRR stroke } bdef
/PlrRR {MlrRR fill } bdef
/MtbRR {/lry xdef /lrx xdef /uly xdef /ulx xdef /rad lrx ulx sub 2 div def
  newpath tMatrix currentmatrix pop ulx rad add uly rad add translate
  rad rad scale 0 0 1 180 360 arc tMatrix setmatrix lrx rad sub lry rad
  sub translate rad rad scale 0 0 1 0 180 arc tMatrix setmatrix
  closepath} bdef
/FtbRR {MtbRR stroke } bdef
/PtbRR {MtbRR fill } bdef
/stri 6 array def /dtri 6 array def
/smat 6 array def /dmat 6 array def
/tmat1 6 array def /tmat2 6 array def /dif 3 array def
/asub {/ind2 exch def /ind1 exch def dup dup
  ind1 get exch ind2 get sub exch } bdef
/tri_to_matrix {
  2 0 asub 3 1 asub 4 0 asub 5 1 asub
  dup 0 get exch 1 get 7 -1 roll astore } bdef
/compute_transform {
  dmat dtri tri_to_matrix tmat1 invertmatrix 
  smat stri tri_to_matrix tmat2 concatmatrix } bdef
/ds {stri astore pop} bdef
/dt {dtri astore pop} bdef
/db {2 copy /cols xdef /rows xdef mul dup 3 mul string
  currentfile 
  3 index 0 eq {/ASCIIHexDecode filter}
  {/ASCII85Decode filter 3 index 2 eq {/RunLengthDecode filter} if }
  ifelse exch readstring pop
  dup 0 3 index getinterval /rbmap xdef
  dup 2 index dup getinterval /gbmap xdef
  1 index dup 2 mul exch getinterval /bbmap xdef pop pop}bdef
/it {gs np dtri aload pop moveto lineto lineto cp c
  cols rows 8 compute_transform 
  rbmap gbmap bbmap true 3 colorimage gr}bdef
/il {newpath moveto lineto stroke}bdef
currentdict end def
%%EndProlog

%%BeginSetup
MathWorks begin

0 cap

end
%%EndSetup

%%Page: 1 1
%%BeginPageSetup
%%PageBoundingBox:    87   265   507   576
MathWorks begin
bpage
%%EndPageSetup

%%BeginObject: obj1
bplot

/dpi2point 12 def
portraitMode 1044 6912 csm

    0     0  5045  3728 rc
86 dict begin %Colortable dictionary
/c0 { 0.000000 0.000000 0.000000 sr} bdef
/c1 { 1.000000 1.000000 1.000000 sr} bdef
/c2 { 0.900000 0.000000 0.000000 sr} bdef
/c3 { 0.000000 0.820000 0.000000 sr} bdef
/c4 { 0.000000 0.000000 0.800000 sr} bdef
/c5 { 0.910000 0.820000 0.320000 sr} bdef
/c6 { 1.000000 0.260000 0.820000 sr} bdef
/c7 { 0.000000 0.820000 0.820000 sr} bdef
c0
1 j
1 sg
   0    0 5046 3729 rf
6 w
0 3038 3910 0 0 -3038 656 3318 4 MP
PP
-3910 0 0 3038 3910 0 0 -3038 656 3318 5 MP stroke
4 w
DO
0 sg
 656 3318 mt  656  280 L
 656  280 mt  656  280 L
1307 3318 mt 1307  280 L
1307  280 mt 1307  280 L
1959 3318 mt 1959  280 L
1959  280 mt 1959  280 L
2611 3318 mt 2611  280 L
2611  280 mt 2611  280 L
3262 3318 mt 3262  280 L
3262  280 mt 3262  280 L
3914 3318 mt 3914  280 L
3914  280 mt 3914  280 L
4566 3318 mt 4566  280 L
4566  280 mt 4566  280 L
 656 3318 mt 4566 3318 L
4566 3318 mt 4566 3318 L
 656 2884 mt 4566 2884 L
4566 2884 mt 4566 2884 L
 656 2450 mt 4566 2450 L
4566 2450 mt 4566 2450 L
 656 2016 mt 4566 2016 L
4566 2016 mt 4566 2016 L
 656 1582 mt 4566 1582 L
4566 1582 mt 4566 1582 L
 656 1148 mt 4566 1148 L
4566 1148 mt 4566 1148 L
 656  714 mt 4566  714 L
4566  714 mt 4566  714 L
 656  280 mt 4566  280 L
4566  280 mt 4566  280 L
SO
6 w
 656  280 mt 4566  280 L
 656 3318 mt 4566 3318 L
4566 3318 mt 4566  280 L
 656 3318 mt  656  280 L
 656 3318 mt 4566 3318 L
 656 3318 mt  656  280 L
 656 3318 mt  656 3278 L
 656  280 mt  656  319 L
%%IncludeResource: font Times-Roman
/Times-Roman /WindowsLatin1Encoding 144 FMSR

 620 3481 mt 
(0) s
1307 3318 mt 1307 3278 L
1307  280 mt 1307  319 L
1199 3481 mt 
(200) s
1959 3318 mt 1959 3278 L
1959  280 mt 1959  319 L
1851 3481 mt 
(400) s
2611 3318 mt 2611 3278 L
2611  280 mt 2611  319 L
2503 3481 mt 
(600) s
3262 3318 mt 3262 3278 L
3262  280 mt 3262  319 L
3154 3481 mt 
(800) s
3914 3318 mt 3914 3278 L
3914  280 mt 3914  319 L
3770 3481 mt 
(1000) s
4566 3318 mt 4566 3278 L
4566  280 mt 4566  319 L
4422 3481 mt 
(1200) s
 656 3318 mt  695 3318 L
4566 3318 mt 4526 3318 L
 396 3369 mt 
(-25) s
 656 2884 mt  695 2884 L
4566 2884 mt 4526 2884 L
 396 2935 mt 
(-20) s
 656 2450 mt  695 2450 L
4566 2450 mt 4526 2450 L
 396 2501 mt 
(-15) s
 656 2016 mt  695 2016 L
4566 2016 mt 4526 2016 L
 396 2067 mt 
(-10) s
 656 1582 mt  695 1582 L
4566 1582 mt 4526 1582 L
 468 1633 mt 
(-5) s
 656 1148 mt  695 1148 L
4566 1148 mt 4526 1148 L
 549 1199 mt 
(0) s
 656  714 mt  695  714 L
4566  714 mt 4526  714 L
 549  765 mt 
(5) s
 656  280 mt  695  280 L
4566  280 mt 4526  280 L
 477  331 mt 
(10) s
 656  280 mt 4566  280 L
 656 3318 mt 4566 3318 L
4566 3318 mt 4566  280 L
 656 3318 mt  656  280 L
gs 656 280 3911 3039 rc
12 w
/c8 { 1.000000 0.000000 0.000000 sr} bdef
c8
3 9 3 -6 4 -4 3 2 3 -3 3 18 4 5 3 5 
3 18 3 8 4 16 3 17 3 16 3 -25 4 -10 3 -5 
3 -6 3 -4 4 -21 3 8 3 -24 3 -19 4 -2 3 -14 
3 -21 3 38 4 13 3 -14 3 -5 4 13 3 -14 3 -34 
3 2 4 19 3 11 3 29 3 -25 4 18 3 4 3 4 
3 0 4 22 3 -4 3 -5 3 37 4 -9 3 11 3 -2 
3 13 4 2 3 11 3 16 3 -6 4 14 3 -29 3 0 
3 -23 4 -23 3 -18 3 -17 4 17 3 -6 3 8 3 -12 
4 7 3 16 3 -1 3 14 4 16 3 -8 3 9 3 -33 
4 5 3 0 3 -23 3 10 4 27 3 3 3 -8 3 1 
4 -9 3 -23 3 -4 3 13 4 -2 3 -24 3 -5 3 -17 
4 4 3 -16 3 -16 4 33 3 -10 3 33 3 58 4 2 
3 -8 3 11 3 16 4 -14 3 6 3 6 3 13 4 -26 
3 -4 3 -5 3 -21 4 5 3 15 3 -16 3 -2 4 -14 
3 25 3 16 3 -8 4 10 3 -5 3 -6 3 -10 4 13 
3 -2 3 -17 4 27 3 12 3 -23 3 -19 4 16 3 2 
3 9 3 -5 4 12 3 5 3 -5 3 23 4 -17 3 15 
3 -5 3 20 4 0 3 -26 3 -27 3 9 4 2 3 4 
3 8 3 -2 4 6 3 15 3 15 4 -2 3 -14 3 -11 
3 10 4 -9 3 -7 3 -8 3 -13 4 -11 3 9 3 10 
3 -34 4 -1 3 11 3 -15 3 -15 4 -1 3 13 3 22 
3 -7 4 3 3 -2 3 18 3 -25 4 -11 3 -1 3 6 
3 1 4 5 3 0 3 3 4 22 3 -9 3 -8 3 -11 
4 -17 3 24 3 -8 3 14 4 -12 3 4 3 -1 3 25 
4 12 3 -13 3 -16 3 -9 4 -9 3 18 3 -6 3 21 
4 -15 3 9 3 7 3 -1 4 8 3 -15 3 -13 3 23 
4 6 3 -8 3 4 4 3 3 18 3 1 3 16 4 -13 
3 12 3 -4 3 9 4 -7 3 19 3 4 3 -17 4 -28 
3 -7 3 -7 3 -8 4 2 3 5 3 -7 3 -1 4 1 
3 -11 3 5 3 -1 4 8 3 8 3 -9 3 -9 4 16 
3 0 3 7 4 -15 3 -10 3 19 3 10 4 13 3 7 
3 -20 3 -19 4 25 3 11 3 16 3 -12 4 -3 3 -13 
3 10 3 2 4 -1 3 3 3 -10 3 -25 4 3 3 -3 
3 13 3 -5 4 14 3 -16 3 -6 4 8 3 -6 3 8 
3 -11 4 -4 3 22 3 -15 3 15 4 13 3 4 3 -10 
3 5 4 -19 3 -3 3 -8 3 -21 4 12 3 -9 3 12 
3 11 4 -2 3 0 3 -10 3 15 4 -4 3 -15 3 -15 
3 -29 4 36 3 24 3588 2844 300 MP stroke
3 5 4 29 3 3 3 -17 3 0 4 7 3 10 3 -6 
3 -22 4 20 3 -9 3 -3 3 3 4 7 3 -5 3 18 
3 -15 4 11 3 3 3 -8 3 4 4 -31 3 7 3 -5 
3 3 4 7 3 11 3 5 3 -9 4 15 3 -5 3 4 
4 -28 3 24 3 25 3 -16 4 6 3 8 3 3 3 -4 
4 -16 3 12 3 -13 3 -4 4 -2 3 -6 3 12 3 17 
4 1 3 8 3 -11 3 -3 4 21 3 2 3 -14 3 -13 
4 18 3 -13 3 19 3 5 4 -3 3 -1 3 -3 4 -2 
3 3 3 22 3 -2 4 -5 3 16 3 -11 3 -25 4 3 
3 30 3 3 3 -13 4 2 3 -8 3 1 3 0 4 -8 
3 5 3 6 3 -5 4 -4 3 -13 3 -5 3 11 4 9 
3 -29 3 10 4 8 3 12 3 8 3 15 4 13 3 2 
3 2 3 -21 4 -26 3 -20 3 4 3 11 4 8 3 12 
3 -1 3 -10 4 -2 3 6 3 -16 3 -6 4 10 3 -12 
3 3 3 -10 4 7 3 3 3 6 3 6 4 -9 3 14 
3 0 4 2 3 6 3 1 3 -7 4 -2 3 6 3 3 
3 -3 4 15 3 12 3 3 3 -10 4 0 3 7 3 3 
3 -4 4 12 3 1 3 -7 3 -1 4 24 3 -9 3 -17 
3 -3 4 1 3 -1 3 1 3 -8 4 5 3 0 3 2 
4 4 3 17 3 -5 3 -8 4 1 3 -22 3 18 3 6 
4 6 3 -6 3 -12 3 13 4 6 3 12 3 -2 3 -2 
4 11 3 14 3 -4 3 -13 4 14 3 5 3 -30 3 3 
4 30 3 -2 3 -12 3 -19 4 4 3 5 3 -4 4 6 
3 11 3 1 3 -3 4 1 3 -14 3 7 3 -1 4 4 
3 -3 3 3 3 5 4 -4 3 1 3 15 3 -17 4 8 
3 -12 3 16 3 8 4 -13 3 3 3 10 3 -8 4 10 
3 -8 3 4 4 14 3 11 3 -8 3 -1 4 0 3 -4 
3 1 3 12 4 7 3 3 3 0 3 -10 4 -12 3 11 
3 -2 3 1 4 -2 3 -7 3 4 3 -6 4 13 3 10 
3 -10 3 13 4 16 3 2 3 4 3 10 4 -8 3 -6 
3 -3 4 -3 3 -2 3 10 3 0 4 4 3 7 3 -2 
3 -12 4 9 3 -10 3 4 3 12 4 -1 3 -10 3 15 
3 0 4 -6 3 10 3 7 3 7 4 2 3 -5 3 4 
3 10 4 -6 3 -3 3 -3 3 -1 4 0 3 10 3 6 
4 8 3 0 3 2 3 2 4 7 3 -9 3 -3 3 -1 
4 6 3 -5 3 8 3 7 4 1 3 -12 3 7 3 -3 
4 0 3 1 3 -1 3 2 4 5 3 4 3 3 3 10 
4 7 3 -3 3 6 2614 2523 300 MP stroke
3 -2 4 3 3 1 3 3 4 2 3 4 3 -6 3 -17 
4 -3 3 1 3 7 3 3 4 0 3 14 3 7 3 -2 
4 -16 3 3 3 8 3 7 4 -5 3 0 3 1 3 -12 
4 9 3 11 3 4 3 3 4 0 3 -4 3 7 4 -3 
3 7 3 -2 3 2 4 -1 3 8 3 2 3 7 4 -1 
3 -8 3 1 3 1 4 6 3 10 3 -3 3 4 4 -3 
3 12 3 3 3 -5 4 3 3 0 3 0 3 -3 4 4 
3 -7 3 -2 3 4 4 0 3 5 3 9 4 3 3 7 
3 -13 3 5 4 3 3 4 3 4 3 0 4 1 3 2 
3 1 3 10 4 -7 3 7 3 4 3 -1 4 4 3 -2 
3 2 3 2 4 0 3 -5 3 8 3 -2 4 2 3 -3 
3 2 3 1 4 10 3 2 3 4 4 6 3 -3 3 6 
3 0 4 -1 3 3 3 -3 3 9 4 1 3 6 3 -4 
3 -4 4 6 3 10 3 -4 3 0 4 -1 3 2 3 0 
3 -5 4 6 3 1 3 2 3 5 4 5 3 -1 3 4 
3 4 4 5 3 -2 3 1 4 -3 3 3 3 6 3 -1 
4 -3 3 0 3 0 3 7 4 0 3 4 3 3 3 2 
4 1 3 1 3 6 3 6 4 7 3 4 3 2 3 1 
4 -1 3 5 3 1 3 -3 4 -1 3 1 3 7 4 1 
3 1 3 3 3 3 4 2 3 1 3 3 3 1 4 9 
3 2 3 4 3 2 4 -1 3 -4 3 4 3 3 4 1 
3 -3 3 1 3 1 4 0 3 4 3 4 3 7 4 5 
3 7 3 1 3 5 4 3 3 2 3 -4 4 5 3 2 
3 4 3 0 4 -5 3 4 3 1 3 4 4 1 3 5 
3 2 3 7 4 1 3 1 3 2 3 2 4 2 3 0 
3 3 3 3 4 3 3 3 3 5 3 1 4 4 3 2 
3 0 3 -1 4 1 3 0 3 0 4 2 3 2 3 4 
3 5 4 3 3 2 3 0 3 -2 4 5 3 2 3 2 
3 4 4 2 3 3 3 1 3 4 4 2 3 2 3 5 
3 3 4 3 3 4 3 -1 3 2 4 3 3 0 3 1 
3 -2 4 5 3 1 3 3 4 2 3 3 3 4 3 0 
4 5 3 2 3 4 3 2 4 0 3 1 3 5 3 2 
4 2 3 4 3 1 3 1 4 0 3 2 3 2 3 0 
4 3 3 0 3 1 3 4 4 3 3 2 3 1 4 3 
3 3 3 0 3 0 4 3 3 4 3 0 3 4 4 3 
3 4 3 3 3 2 4 3 3 4 3 2 3 -1 4 1 
3 3 3 4 3 2 4 2 3 1 3 2 3 4 4 3 
3 0 3 4 3 4 1640 1955 300 MP stroke
4 1 3 1 3 4 4 1 3 3 3 2 3 5 4 1 
3 2 3 2 3 3 4 0 3 1 3 3 3 3 4 -1 
3 4 3 3 3 0 4 2 3 1 3 5 3 2 4 2 
3 3 3 2 3 2 4 3 3 0 3 0 3 2 4 2 
3 4 3 4 4 2 3 3 3 3 3 2 4 0 3 3 
3 1 3 2 4 3 3 2 3 4 3 3 4 3 3 1 
3 4 3 0 4 3 3 2 3 2 3 2 4 1 3 4 
3 3 3 2 4 3 3 3 3 4 3 1 4 3 3 1 
3 2 4 4 3 5 3 2 3 2 4 4 3 1 3 2 
3 3 4 1 3 4 3 3 3 2 4 4 3 1 3 3 
3 1 4 3 3 0 3 4 3 1 4 0 3 3 3 4 
3 3 4 1 3 2 3 1 4 2 3 2 3 5 3 3 
4 1 3 1 3 2 3 4 4 2 3 4 3 3 3 2 
4 3 3 2 3 2 3 2 4 2 3 3 3 2 3 3 
4 1 3 3 3 1 3 3 4 3 3 1 3 3 3 4 
4 3 3 2 3 5 4 1 3 3 3 3 3 1 4 4 
3 2 3 2 3 4 4 1 3 2 3 4 3 4 4 2 
3 3 3 2 3 1 4 3 3 2 3 3 3 4 4 1 
3 4 3 2 3 3 4 1 3 2 3 2 3 3 4 4 
3 4 3 1 4 2 3 2 3 3 3 2 4 4 3 3 
3 2 3 2 4 2 3 2 3 2 3 1 4 3 3 4 
3 2 3 3 4 3 3 3 3 4 3 2 4 4 3 2 
3 3 3 3 4 0 3 3 3 4 3 1 4 3 3 3 
3 4 4 2 3 3 3 3 3 2 4 3 3 2 3 5 
3 1 4 2 3 1 3 2 3 3 4 1 3 3 3 2 
3 2 4 3 3 5 3 1 3 2 4 3 3 5 3 2 
3 4 4 4 3 1 3 4 4 4 3 5 3 3 3 2 
4 3 3 2 3 4 3 3 4 4 3 3 3 2 3 4 
4 3 3 4 3 5 3 4 4 4 3 4 3 3 3 3 
4 3 3 3 3 6 3 4 4 4 3 3 3 4 3 6 
4 3 3 6 3 5 4 5 3 5 3 5 3 5 4 4 
3 9 3 6 3 6 4 8 3 6 3 6 3 6 4 5 
3 8 3 8 3 8 4 10 3 9 3 9 3 10 4 8 
3 8 3 10 3 8 4 13 3 9 3 16 3 10 4 11 
3 9 3 11 4 16 3 11 3 14 3 11 4 20 3 15 
3 19 3 13 4 16 3 17 3 23 3 20 4 19 3 25 
3 17 3 19 4 22 3 17 3 21 3 25 4 26 3 22 
3 27 3 23 4 26 665 587 300 MP stroke
3 24 3 22 659 541 3 MP stroke
gr

12 w
c8
gs 562 444 3668 2489 rc
  48   48  659  541 FO
  48   48 1092 1556 FO
  48   48 1525 1881 FO
  48   48 1962 2172 FO
  48   48 2395 2437 FO
  48   48 2829 2653 FO
  48   48 3262 2792 FO
  48   48 3699 2835 FO
  48   48 4132 2826 FO
gr

gs 656 280 3911 3039 rc
659 541 PD
gr

gs 562 444 195 195 rc
  48   48  659  541 FO
gr

gs 656 280 3911 3039 rc
/c9 { 0.000000 0.000000 1.000000 sr} bdef
c9
3 16 3 1 4 -9 3 -11 3 1 3 8 4 12 3 7 
3 22 3 -2 4 10 3 4 3 9 3 -12 4 -15 3 -11 
3 4 3 0 4 -21 3 12 3 -25 3 -13 4 9 3 -1 
3 -16 3 11 4 2 3 -5 3 -21 4 4 3 -8 3 -32 
3 12 4 12 3 20 3 26 3 -14 4 8 3 0 3 -6 
3 -3 4 14 3 1 3 3 3 33 4 -17 3 8 3 2 
3 14 4 -8 3 4 3 15 3 -11 4 2 3 -31 3 3 
3 -18 4 -24 3 -17 3 -8 4 23 3 -7 3 18 3 1 
4 -5 3 6 3 -1 3 16 4 18 3 6 3 5 3 -19 
4 -1 3 -1 3 -10 3 6 4 21 3 -4 3 -12 3 -2 
4 -9 3 -16 3 -4 3 13 4 1 3 -25 3 -1 3 -9 
4 -8 3 -11 3 -8 4 32 3 -6 3 22 3 54 4 -8 
3 -4 3 11 3 12 4 -15 3 11 3 1 3 13 4 -15 
3 1 3 -11 3 -23 4 0 3 15 3 -6 3 -8 4 -7 
3 16 3 10 3 -6 4 13 3 -4 3 -2 3 -10 4 1 
3 -6 3 -3 4 13 3 11 3 -20 3 -4 4 16 3 -12 
3 6 3 -3 4 9 3 11 3 7 3 14 4 0 3 17 
3 -18 3 16 4 -4 3 -23 3 -16 3 6 4 4 3 -3 
3 9 3 -4 4 -9 3 17 3 13 4 6 3 -7 3 -8 
3 7 4 -2 3 -6 3 -10 3 -15 4 -8 3 6 3 4 
3 -26 4 5 3 7 3 -16 3 1 4 -8 3 1 3 20 
3 -3 4 4 3 -2 3 12 3 -23 4 -7 3 3 3 -10 
3 -6 4 3 3 14 3 1 4 9 3 -15 3 -4 3 3 
4 -18 3 17 3 -2 3 27 4 -9 3 3 3 -6 3 17 
4 11 3 -21 3 -33 3 -11 4 4 3 12 3 -6 3 21 
4 -3 3 6 3 4 3 -8 4 4 3 -15 3 -1 3 7 
4 15 3 -11 3 12 4 9 3 14 3 -11 3 13 4 -5 
3 26 3 2 3 15 4 -7 3 10 3 -8 3 -8 4 -24 
3 -8 3 5 3 -17 4 5 3 -10 3 0 3 4 4 9 
3 -12 3 7 3 -16 4 11 3 3 3 -5 3 1 4 9 
3 -5 3 1 4 -9 3 -7 3 5 3 17 4 18 3 0 
3 -13 3 -19 4 12 3 9 3 19 3 1 4 -11 3 -27 
3 14 3 -5 4 4 3 -4 3 -9 3 -21 4 10 3 0 
3 13 3 -15 4 9 3 -12 3 -11 4 7 3 4 3 14 
3 -4 4 -4 3 18 3 -13 3 10 4 11 3 -2 3 -5 
3 14 4 -20 3 -4 3 -1 3 -16 4 3 3 -10 3 15 
3 0 4 -9 3 5 3 -17 3 11 4 -1 3 -6 3 -20 
3 -24 4 25 3 19 3588 2902 300 MP stroke
3 -11 4 28 3 -1 3 -14 3 5 4 7 3 2 3 -14 
3 -20 4 17 3 -8 3 -3 3 14 4 14 3 -15 3 10 
3 -19 4 12 3 9 3 -5 3 4 4 -27 3 9 3 2 
3 12 4 1 3 6 3 7 3 -10 4 6 3 -9 3 -11 
4 -30 3 21 3 31 3 -13 4 8 3 9 3 -1 3 1 
4 -19 3 16 3 -14 3 -4 4 0 3 -4 3 15 3 19 
4 -1 3 2 3 -6 3 -8 4 21 3 -1 3 -19 3 -9 
4 14 3 -23 3 14 3 2 4 11 3 -2 3 5 4 3 
3 -4 3 20 3 -3 4 -16 3 21 3 -3 3 -30 4 13 
3 26 3 7 3 -15 4 -8 3 -10 3 13 3 2 4 -1 
3 5 3 6 3 -12 4 -2 3 -22 3 -4 3 16 4 11 
3 -23 3 7 4 10 3 13 3 1 3 6 4 2 3 2 
3 -1 3 -30 4 -26 3 -11 3 0 3 9 4 2 3 16 
3 -5 3 -24 4 -6 3 11 3 -14 3 -12 4 3 3 -16 
3 8 3 -9 4 19 3 4 3 2 3 9 4 -11 3 21 
3 -5 4 9 3 5 3 -12 3 -16 4 -11 3 8 3 5 
3 -2 4 19 3 13 3 12 3 -15 4 -1 3 18 3 1 
3 -4 4 8 3 2 3 -23 3 6 4 35 3 -13 3 -4 
3 -2 4 2 3 21 3 -6 3 -15 4 2 3 4 3 -11 
4 9 3 17 3 -12 3 -6 4 -19 3 -33 3 28 3 6 
4 13 3 -9 3 -20 3 26 4 6 3 -5 3 -5 3 0 
4 1 3 22 3 -4 3 -15 4 25 3 4 3 -26 3 -1 
4 33 3 -15 3 -10 3 -21 4 -5 3 -1 3 -12 4 1 
3 12 3 0 3 -12 4 -10 3 -9 3 16 3 3 4 1 
3 -3 3 -2 3 14 4 7 3 -10 3 18 3 -19 4 2 
3 -32 3 18 3 15 4 -19 3 -1 3 11 3 -9 4 14 
3 -13 3 7 4 14 3 11 3 -13 3 5 4 9 3 -14 
3 1 3 17 4 10 3 4 3 -14 3 -33 4 -18 3 10 
3 7 3 5 4 -2 3 -17 3 6 3 -5 4 16 3 11 
3 -20 3 23 4 17 3 0 3 1 3 10 4 -11 3 -8 
3 -8 4 -5 3 -1 3 -4 3 3 4 2 3 19 3 -19 
3 -22 4 22 3 -17 3 22 3 24 4 -2 3 -17 3 18 
3 -7 4 -3 3 16 3 7 3 20 4 -8 3 -21 3 13 
3 11 4 -7 3 -13 3 -2 3 -8 4 4 3 18 3 -6 
4 16 3 -12 3 -7 3 0 4 10 3 -21 3 -6 3 -15 
4 7 3 -6 3 7 3 16 4 -9 3 -18 3 13 3 1 
4 -2 3 -4 3 1 3 -4 4 0 3 12 3 2 3 11 
4 20 3 -6 3 1 2614 2840 300 MP stroke
3 -20 4 6 3 12 3 6 4 1 3 18 3 -15 3 -49 
4 -5 3 -15 3 21 3 7 4 -9 3 20 3 2 3 3 
4 -35 3 -1 3 20 3 -7 4 -6 3 -7 3 -1 3 -29 
4 15 3 14 3 8 3 -1 4 8 3 -15 3 9 4 -9 
3 2 3 -14 3 9 4 -6 3 15 3 4 3 16 4 -7 
3 -24 3 1 3 -6 4 7 3 24 3 -3 3 3 4 -1 
3 33 3 -3 3 -16 4 5 3 3 3 -7 3 -21 4 7 
3 -11 3 -9 3 1 4 -13 3 17 3 26 4 1 3 7 
3 -29 3 7 4 8 3 6 3 -6 3 -5 4 -7 3 4 
3 1 3 21 4 -9 3 9 3 7 3 -3 4 -3 3 -18 
3 -3 3 -5 4 -6 3 -14 3 22 3 -3 4 -5 3 -17 
3 -3 3 6 4 24 3 8 3 2 4 9 3 -6 3 -1 
3 -3 4 3 3 5 3 -10 3 18 4 -10 3 15 3 -22 
3 -22 4 17 3 18 3 -23 3 -10 4 0 3 -3 3 7 
3 -22 4 9 3 -2 3 -4 3 -1 4 19 3 -8 3 5 
3 6 4 15 3 -17 3 -9 4 -22 3 -2 3 9 3 -11 
4 -10 3 -6 3 -10 3 -11 4 2 3 10 3 14 3 -1 
4 1 3 2 3 12 3 14 4 13 3 14 3 -11 3 6 
4 -17 3 12 3 5 3 -15 4 -15 3 -5 3 26 4 7 
3 -8 3 5 3 -3 4 -2 3 -1 3 -3 3 0 4 25 
3 -7 3 1 3 9 4 -10 3 -21 3 7 3 6 4 -8 
3 -16 3 16 3 -1 4 -4 3 7 3 12 3 22 4 14 
3 17 3 -13 3 16 4 5 3 1 3 -21 4 -2 3 3 
3 8 3 -11 4 -39 3 8 3 0 3 -6 4 -13 3 10 
3 -11 3 36 4 2 3 4 3 1 3 -8 4 -1 3 -13 
3 -1 3 -4 4 7 3 -9 3 3 3 -6 4 14 3 -8 
3 0 3 -18 4 -14 3 -17 3 0 4 9 3 -1 3 5 
3 25 4 0 3 -1 3 -11 3 -26 4 14 3 2 3 -4 
3 28 4 16 3 -8 3 -5 3 7 4 -6 3 3 3 19 
3 1 4 4 3 10 3 -32 3 10 4 0 3 -19 3 -1 
3 -20 4 12 3 6 3 2 4 -15 3 2 3 3 3 -13 
4 18 3 16 3 -3 3 3 4 -3 3 -5 3 -15 3 4 
4 1 3 23 3 -7 3 0 4 -3 3 -5 3 -6 3 -7 
4 -9 3 -16 3 -1 3 10 4 0 3 2 3 -7 4 4 
3 11 3 -1 3 -13 4 0 3 14 3 -5 3 22 4 17 
3 2 3 7 3 11 4 -7 3 7 3 11 3 -25 4 -9 
3 4 3 0 3 -1 4 8 3 -7 3 6 3 10 4 8 
3 -8 3 9 3 20 1640 2820 300 MP stroke
4 -12 3 -19 3 20 4 -17 3 -6 3 0 3 19 4 -16 
3 -4 3 -16 3 2 4 -28 3 -17 3 14 3 13 4 -11 
3 23 3 10 3 -2 4 -17 3 -24 3 40 3 -24 4 8 
3 0 3 -13 3 -7 4 15 3 -16 3 -23 3 -2 4 8 
3 6 3 -5 4 4 3 8 3 -14 3 9 4 -14 3 7 
3 -13 3 -8 4 -15 3 19 3 6 3 -9 4 2 3 -6 
3 8 3 -31 4 -11 3 23 3 -10 3 11 4 3 3 -7 
3 4 3 4 4 14 3 0 3 5 3 -13 4 -7 3 -6 
3 2 4 17 3 27 3 2 3 12 4 21 3 -15 3 -10 
3 17 4 -8 3 27 3 13 3 0 4 -8 3 -6 3 -12 
3 -9 4 -21 3 -20 3 16 3 -14 4 -7 3 5 3 24 
3 10 4 7 3 -11 3 -13 4 -4 3 2 3 10 3 9 
4 -1 3 -8 3 -6 3 19 4 8 3 22 3 15 3 -4 
4 -6 3 -16 3 18 3 -9 4 -9 3 -5 3 1 3 7 
4 -7 3 4 3 -13 3 3 4 1 3 -9 3 12 3 4 
4 10 3 -9 3 -5 4 -3 3 7 3 -6 3 -22 4 -2 
3 -2 3 -12 3 32 4 6 3 -17 3 19 3 -16 4 6 
3 -2 3 6 3 -3 4 18 3 4 3 3 3 10 4 -11 
3 9 3 -4 3 -20 4 -5 3 -4 3 -8 3 14 4 18 
3 4 3 -12 4 -7 3 5 3 7 3 -8 4 9 3 18 
3 -23 3 -4 4 -7 3 5 3 -17 3 -35 4 -11 3 4 
3 -17 3 4 4 29 3 -8 3 30 3 -16 4 25 3 6 
3 9 3 26 4 -21 3 -28 3 10 3 6 4 4 3 5 
3 13 4 -16 3 -5 3 -24 3 -2 4 -4 3 -12 3 12 
3 9 4 -6 3 -7 3 13 3 5 4 -11 3 -5 3 22 
3 -2 4 -1 3 9 3 -7 3 -13 4 14 3 2 3 5 
3 30 4 6 3 -39 3 -13 4 -1 3 48 3 -14 3 -15 
4 17 3 14 3 -7 3 -1 4 1 3 -5 3 4 3 -9 
4 -6 3 -4 3 5 3 -8 4 -6 3 5 3 14 3 -15 
4 -32 3 4 3 18 3 23 4 6 3 -4 3 -2 3 2 
4 10 3 21 3 17 4 -3 3 -11 3 0 3 -37 4 -12 
3 11 3 -3 3 3 4 15 3 -7 3 12 3 16 4 -3 
3 3 3 7 3 22 4 -4 3 13 3 16 3 32 4 31 
3 -5 3 189 3 -6 4 17 3 18 3 -2 3 126 4 84 
3 8 3 132 4 54 3 1 3 88 3 34 4 0 3 66 
3 33 3 26 4 1 3 87 3 77 3 44 4 82 3 41 
3 12 3 61 4 69 3 24 3 58 3 70 4 74 3 113 
3 79 3 110 4 122 665 730 300 MP stroke
3 99 3 90 659 541 3 MP stroke
gr

c9
gs 562 444 3668 2589 rc
0 j
0 -76 -76 0 0 76 76 0 621 503 5 MP
DP
0 -76 -76 0 0 76 76 0 1054 2897 5 MP
DP
0 -76 -76 0 0 76 76 0 1487 2879 5 MP
DP
0 -76 -76 0 0 76 76 0 1924 2830 5 MP
DP
0 -76 -76 0 0 76 76 0 2357 2830 5 MP
DP
0 -76 -76 0 0 76 76 0 2791 2870 5 MP
DP
0 -76 -76 0 0 76 76 0 3224 2868 5 MP
DP
0 -76 -76 0 0 76 76 0 3661 2835 5 MP
DP
0 -76 -76 0 0 76 76 0 4094 2812 5 MP
DP
gr

gs 656 280 3911 3039 rc
659 541 PD
gr

gs 562 444 195 195 rc
0 j
0 -76 -76 0 0 76 76 0 621 503 5 MP
DP
gr

gs 656 280 3911 3039 rc
DA
24 w
0 sg
4 0 3 0 3 0 4 0 3 0 3 0 3 0 4 0 
3 0 3 0 3 0 4 0 3 0 3 0 3 0 4 0 
3 0 3 0 3 0 4 0 3 0 3 0 3 0 4 0 
3 0 3 0 3 0 4 0 3 0 3 0 4 0 3 0 
3 0 3 0 4 0 3 0 3 0 3 0 4 0 3 0 
3 0 3 0 4 0 3 0 3 0 3 0 4 0 3 0 
3 0 3 0 4 0 3 0 3 0 3 0 4 0 3 0 
3 0 3 0 4 0 3 0 3 0 4 0 3 0 3 0 
3 0 4 0 3 0 3 0 3 0 4 0 3 0 3 0 
3 0 4 0 3 0 3 0 3 0 4 0 3 0 3 0 
3 0 4 0 3 0 3 0 3 0 4 0 3 0 3 0 
3 0 4 0 3 0 3 0 4 0 3 0 3 0 3 0 
4 0 3 0 3 0 3 0 4 0 3 0 3 0 3 0 
4 0 3 0 3 0 3 0 4 0 3 0 3 0 3 0 
4 0 3 0 3 0 3 0 4 0 3 0 3 0 3 0 
4 0 3 0 3 0 4 0 3 0 3 0 3 0 4 0 
3 0 3 0 3 0 4 0 3 0 3 0 3 0 4 0 
3 0 3 0 3 0 4 0 3 0 3 0 3 0 4 0 
3 0 3 0 3 0 4 0 3 0 3 0 4 0 3 0 
3 0 3 0 4 0 3 0 3 0 3 0 4 0 3 0 
3 0 3 0 4 0 3 0 3 0 3 0 4 0 3 0 
3 0 3 0 4 0 3 0 3 0 3 0 4 0 3 0 
3 0 3 0 4 0 3 0 3 0 4 0 3 0 3 0 
3 0 4 0 3 0 3 0 3 0 4 0 3 0 3 0 
3 0 4 0 3 0 3 0 3 0 4 0 3 0 3 0 
3 0 4 0 3 0 3 0 3 0 4 0 3 0 3 0 
3 0 4 0 3 0 3 0 4 0 3 0 3 0 3 0 
4 0 3 0 3 0 3 0 4 0 3 0 3 0 3 0 
4 0 3 0 3 0 3 0 4 0 3 0 3 0 3 0 
4 0 3 0 3 0 3 0 4 0 3 0 3 0 3 0 
4 0 3 0 3 0 4 0 3 0 3 0 3 0 4 0 
3 0 3 0 3 0 4 0 3 0 3 0 3 0 4 0 
3 0 3 0 3 0 4 0 3 0 3 0 3 0 4 0 
3 0 3 0 3 0 4 0 3 0 3 0 4 0 3 0 
3 0 3 0 4 0 3 0 3 0 3 0 4 0 3 0 
3 0 3 0 4 0 3 0 3 0 3 0 4 0 3 0 
3 0 3 0 4 0 3 0 3 0 3 0 4 0 3 0 
3 0 3 0 4 0 3591 2883 300 MP stroke
3 0 3 0 4 0 3 0 3 0 3 0 4 0 3 0 
3 0 3 0 4 0 3 0 3 0 3 0 4 0 3 0 
3 0 3 0 4 0 3 0 3 0 3 0 4 0 3 0 
3 0 3 0 4 0 3 0 3 0 3 0 4 0 3 0 
3 0 4 0 3 0 3 0 3 0 4 0 3 0 3 0 
3 0 4 0 3 0 3 0 3 0 4 0 3 0 3 0 
3 0 4 0 3 0 3 0 3 0 4 0 3 0 3 0 
3 0 4 0 3 0 3 0 3 0 4 0 3 0 3 0 
4 0 3 0 3 0 3 0 4 0 3 0 3 0 3 0 
4 0 3 0 3 0 3 0 4 0 3 0 3 0 3 0 
4 0 3 0 3 0 3 0 4 0 3 0 3 0 3 0 
4 0 3 0 3 0 4 0 3 0 3 0 3 0 4 0 
3 0 3 0 3 0 4 0 3 0 3 0 3 0 4 0 
3 0 3 0 3 0 4 0 3 0 3 0 3 0 4 0 
3 0 3 0 3 0 4 0 3 0 3 0 3 0 4 0 
3 0 3 0 4 0 3 0 3 0 3 0 4 0 3 0 
3 0 3 0 4 0 3 0 3 0 3 0 4 0 3 0 
3 0 3 0 4 0 3 0 3 0 3 0 4 0 3 0 
3 0 3 0 4 0 3 0 3 0 3 0 4 0 3 0 
3 0 4 0 3 0 3 0 3 0 4 0 3 0 3 0 
3 0 4 0 3 0 3 0 3 0 4 0 3 0 3 0 
3 0 4 0 3 0 3 0 3 0 4 0 3 0 3 0 
3 0 4 0 3 0 3 0 3 0 4 0 3 0 3 0 
4 0 3 0 3 0 3 0 4 0 3 0 3 0 3 0 
4 0 3 0 3 0 3 0 4 0 3 0 3 0 3 0 
4 0 3 0 3 0 3 0 4 0 3 0 3 0 3 0 
4 0 3 0 3 0 4 0 3 0 3 0 3 0 4 0 
3 0 3 0 3 0 4 0 3 0 3 0 3 0 4 0 
3 0 3 0 3 0 4 0 3 0 3 0 3 0 4 0 
3 0 3 0 3 0 4 0 3 0 3 0 3 0 4 0 
3 0 3 0 4 0 3 0 3 0 3 0 4 0 3 0 
3 0 3 0 4 0 3 0 3 0 3 0 4 0 3 0 
3 0 3 0 4 0 3 0 3 0 3 0 4 0 3 0 
3 0 3 0 4 0 3 0 3 0 3 0 4 0 3 0 
3 0 4 0 3 0 3 0 3 0 4 0 3 0 3 0 
3 0 4 0 3 0 3 0 3 0 4 0 3 0 3 0 
3 0 4 0 3 0 3 0 3 0 4 0 3 0 3 0 
3 0 4 0 3 0 2617 2883 300 MP stroke
3 0 3 0 4 0 3 0 3 0 4 0 3 0 3 0 
3 0 4 0 3 0 3 0 3 0 4 0 3 0 3 0 
3 0 4 0 3 0 3 0 3 0 4 0 3 0 3 0 
3 0 4 0 3 0 3 0 3 0 4 0 3 0 3 0 
4 0 3 0 3 0 3 0 4 0 3 0 3 0 3 0 
4 0 3 0 3 0 3 0 4 0 3 0 3 0 3 0 
4 0 3 0 3 0 3 0 4 0 3 0 3 0 3 0 
4 0 3 0 3 0 3 0 4 0 3 0 3 0 4 0 
3 0 3 0 3 0 4 0 3 0 3 0 3 0 4 0 
3 0 3 0 3 0 4 0 3 0 3 0 3 0 4 0 
3 0 3 0 3 0 4 0 3 0 3 0 3 0 4 0 
3 0 3 0 3 0 4 0 3 0 3 0 4 0 3 0 
3 0 3 0 4 0 3 0 3 0 3 0 4 0 3 0 
3 0 3 0 4 0 3 0 3 0 3 0 4 0 3 0 
3 0 3 0 4 0 3 0 3 0 3 0 4 0 3 0 
3 0 3 0 4 0 3 0 3 0 4 0 3 0 3 0 
3 0 4 0 3 0 3 0 3 0 4 0 3 0 3 0 
3 0 4 0 3 0 3 0 3 0 4 0 3 0 3 0 
3 0 4 0 3 0 3 0 3 0 4 0 3 0 3 0 
4 0 3 0 3 0 3 0 4 0 3 0 3 0 3 0 
4 0 3 0 3 0 3 0 4 0 3 0 3 0 3 0 
4 0 3 0 3 0 3 0 4 0 3 0 3 0 3 0 
4 0 3 0 3 0 3 0 4 0 3 0 3 0 4 0 
3 0 3 0 3 0 4 0 3 0 3 0 3 0 4 0 
3 0 3 0 3 0 4 0 3 0 3 0 3 0 4 0 
3 0 3 0 3 0 4 0 3 0 3 0 3 0 4 0 
3 0 3 0 3 0 4 0 3 0 3 0 4 0 3 0 
3 0 3 0 4 0 3 0 3 0 3 0 4 0 3 0 
3 0 3 0 4 0 3 0 3 0 3 0 4 0 3 0 
3 0 3 0 4 0 3 0 3 0 3 0 4 0 3 0 
3 0 3 0 4 0 3 0 3 0 4 0 3 0 3 0 
3 0 4 0 3 0 3 0 3 0 4 0 3 0 3 0 
3 0 4 0 3 0 3 0 3 0 4 0 3 0 3 0 
3 0 4 0 3 0 3 0 3 0 4 0 3 0 3 0 
4 0 3 0 3 0 3 0 4 0 3 0 3 0 3 0 
4 0 3 0 3 0 3 0 4 0 3 0 3 0 3 0 
4 0 3 0 3 0 3 0 4 0 3 0 3 0 3 0 
4 0 3 0 3 0 1643 2883 300 MP stroke
3 0 4 0 3 0 3 0 4 0 3 0 3 0 3 0 
4 0 3 0 3 0 3 0 4 0 3 0 3 0 3 0 
4 0 3 0 3 0 3 0 4 0 3 0 3 0 3 0 
4 0 3 0 3 0 3 0 4 0 3 0 3 0 3 0 
4 0 3 0 3 0 4 0 3 0 3 0 3 0 4 0 
3 0 3 0 3 0 4 0 3 0 3 0 3 0 4 0 
3 0 3 0 3 0 4 0 3 0 3 0 3 0 4 0 
3 0 3 0 3 0 4 0 3 0 3 0 3 0 4 0 
3 0 3 0 4 0 3 0 3 0 3 0 4 0 3 0 
3 0 3 0 4 0 3 0 3 0 3 0 4 0 3 0 
3 0 3 0 4 0 3 0 3 0 3 0 4 0 3 0 
3 0 3 0 4 0 3 0 3 0 4 0 3 0 3 0 
3 0 4 0 3 0 3 0 3 0 4 0 3 0 3 0 
3 0 4 0 3 0 3 0 3 0 4 0 3 0 3 0 
3 0 4 0 3 0 3 0 3 0 4 0 3 0 3 0 
3 0 4 0 3 0 3 0 4 0 3 0 3 0 3 0 
4 0 3 0 3 0 3 0 4 0 3 0 3 0 3 0 
4 0 3 0 3 0 3 0 4 0 3 0 3 0 3 0 
4 0 3 0 3 0 3 0 4 0 3 0 3 0 3 0 
4 0 3 0 3 0 4 0 3 0 3 0 3 0 4 0 
3 0 3 0 3 0 4 0 3 0 3 0 3 0 4 0 
3 0 3 0 3 0 4 0 3 0 3 0 3 0 4 0 
3 0 3 0 3 0 4 0 3 0 3 0 3 0 4 0 
3 0 3 0 4 0 3 0 3 0 3 0 4 0 3 0 
3 0 3 0 4 0 3 0 3 0 3 0 4 0 3 0 
3 0 3 0 4 0 3 0 3 0 3 0 4 0 3 0 
3 0 3 0 4 0 3 0 3 0 4 0 3 0 3 0 
3 0 4 0 3 0 3 0 3 0 4 0 3 0 3 0 
3 0 4 0 3 0 3 0 3 0 4 0 3 0 3 0 
3 0 4 0 3 0 3 0 3 0 4 0 3 0 3 0 
3 0 4 0 3 0 3 0 4 0 3 0 3 0 3 0 
4 0 3 0 3 0 3 0 4 0 3 0 3 0 3 0 
4 0 3 0 3 0 3 0 4 0 3 0 3 0 3 0 
4 0 3 0 3 0 3 0 4 0 3 0 3 0 3 0 
4 0 3 0 3 0 4 0 3 0 3 0 3 0 4 0 
3 0 3 0 3 0 4 0 3 0 3 0 3 0 4 0 
3 0 3 0 3 0 4 0 3 0 3 0 3 0 4 0 
3 0 3 0 3 0 669 2883 300 MP stroke
4 0 3 0 3 0 659 2883 4 MP stroke
gr

24 w
0 sg
DA
2193 3633 mt 
(iteration index) s
 310 2106 mt  -90 rotate
(MSD \(dB\)) s
90 rotate
%%IncludeResource: font Helvetica
/Helvetica /WindowsLatin1Encoding 120 FMSR

 639 3361 mt 
( ) s
4550  322 mt 
( ) s
gs 656 280 3911 3039 rc
SO
12 w
4 2 3 3 3 3 4 2 3 2 3 3 3 2 4 2 
3 1 3 1 3 1 4 1 3 2 3 1 3 1 4 1 
3 1 3 0 3 -1 4 0 3 0 3 0 3 -1 4 0 
3 -2 3 -1 3 -2 4 -3 3 -2 3 -2 4 -2 3 -3 
3 -3 3 -3 4 -3 3 -3 3 -3 3 -2 4 -1 3 -2 
3 -2 3 -1 4 -1 3 -1 3 0 3 -1 4 0 3 -1 
3 -1 3 -1 4 -1 3 0 3 -1 3 0 4 -1 3 0 
3 0 3 0 4 1 3 0 3 1 4 1 3 2 3 1 
3 1 4 2 3 1 3 2 3 1 4 2 3 1 3 1 
3 2 4 2 3 2 3 2 3 1 4 2 3 0 3 0 
3 0 4 0 3 0 3 -1 3 -1 4 -1 3 -1 3 -1 
3 -2 4 -1 3 -1 3 -1 4 -1 3 -1 3 -1 3 -1 
4 -1 3 -1 3 -1 3 -1 4 -1 3 0 3 0 3 0 
4 -1 3 0 3 -2 3 -1 4 -2 3 -2 3 -2 3 -3 
4 -2 3 -2 3 -1 3 -1 4 0 3 0 3 0 3 0 
4 0 3 0 3 0 4 0 3 0 3 0 3 0 4 1 
3 1 3 1 3 0 4 0 3 0 3 0 3 0 4 0 
3 1 3 0 3 0 4 1 3 0 3 0 3 0 4 0 
3 -1 3 -1 3 -1 4 -1 3 -1 3 -1 4 -1 3 -1 
3 0 3 -1 4 0 3 0 3 0 3 1 4 0 3 0 
3 1 3 0 4 0 3 1 3 0 3 0 4 0 3 1 
3 0 3 -1 4 0 3 1 3 0 3 0 4 -1 3 1 
3 0 3 -1 4 0 3 1 3 0 4 1 3 0 3 0 
3 0 4 1 3 0 3 0 3 1 4 0 3 1 3 1 
3 1 4 1 3 1 3 1 3 1 4 1 3 2 3 1 
3 1 4 1 3 0 3 0 3 0 4 0 3 0 3 0 
3 0 4 1 3 0 3 0 4 1 3 0 3 0 3 0 
4 0 3 1 3 0 3 0 4 0 3 1 3 0 3 0 
4 0 3 0 3 0 3 0 4 1 3 0 3 1 3 1 
4 2 3 1 3 1 3 1 4 1 3 0 3 1 3 1 
4 1 3 1 3 1 4 1 3 1 3 0 3 1 4 1 
3 1 3 0 3 0 4 -1 3 0 3 -1 3 0 4 -1 
3 -1 3 0 3 -1 4 0 3 -1 3 -1 3 -1 4 -1 
3 0 3 -1 3 0 4 -1 3 -1 3 0 4 0 3 0 
3 0 3 -1 4 0 3 0 3 0 3 1 4 0 3 0 
3 -1 3 -1 4 0 3 -1 3 0 3 -1 4 1 3 -1 
3 0 3 0 4 -1 3 0 3 -1 3 -1 4 -1 3 -1 
3 -1 3 0 4 -1 3591 2883 300 MP stroke
3 0 3 -1 4 0 3 0 3 0 3 -1 4 0 3 0 
3 0 3 -1 4 0 3 -1 3 -1 3 -1 4 -2 3 -1 
3 -2 3 -3 4 -2 3 -4 3 -3 3 -4 4 -3 3 -3 
3 -4 3 -4 4 -4 3 -4 3 -3 3 -3 4 -3 3 -2 
3 -2 4 -1 3 -1 3 -1 3 0 4 1 3 1 3 1 
3 1 4 1 3 3 3 2 3 3 4 3 3 4 3 3 
3 4 4 3 3 4 3 3 3 4 4 3 3 3 3 4 
3 3 4 4 3 3 3 2 3 2 4 1 3 0 3 1 
4 0 3 -1 3 -1 3 -1 4 -1 3 -2 3 -1 3 -2 
4 -2 3 -2 3 -3 3 -1 4 -2 3 -2 3 -2 3 -1 
4 -2 3 -1 3 -1 3 0 4 1 3 1 3 1 3 2 
4 2 3 1 3 1 4 2 3 1 3 1 3 0 4 1 
3 1 3 0 3 0 4 -1 3 0 3 0 3 0 4 0 
3 1 3 1 3 1 4 1 3 0 3 1 3 1 4 2 
3 3 3 2 3 3 4 3 3 2 3 2 3 3 4 2 
3 2 3 2 4 1 3 1 3 1 3 0 4 0 3 -1 
3 0 3 -2 4 -1 3 -2 3 -2 3 -2 4 -2 3 -2 
3 -2 3 -2 4 -2 3 -3 3 -2 3 -3 4 -3 3 -3 
3 -3 3 -3 4 -2 3 -2 3 -3 3 -2 4 -2 3 -2 
3 -1 4 -2 3 -1 3 -1 3 0 4 -1 3 0 3 0 
3 1 4 1 3 1 3 1 3 1 4 2 3 2 3 2 
3 2 4 1 3 2 3 3 3 2 4 2 3 3 3 1 
3 3 4 2 3 3 3 3 3 3 4 3 3 3 3 2 
4 2 3 3 3 2 3 2 4 1 3 2 3 1 3 1 
4 1 3 0 3 0 3 -1 4 0 3 -1 3 -1 3 -1 
4 -1 3 -1 3 -2 3 -1 4 -1 3 -1 3 -1 3 0 
4 -1 3 -1 3 -1 4 -1 3 0 3 -1 3 0 4 -1 
3 -1 3 -1 3 -2 4 -1 3 -1 3 -1 3 -2 4 -2 
3 -3 3 -2 3 -2 4 -2 3 -3 3 -2 3 -2 4 -3 
3 -2 3 -1 3 -2 4 0 3 -1 3 -1 3 0 4 0 
3 -1 3 0 4 -1 3 -1 3 0 3 0 4 0 3 1 
3 2 3 1 4 2 3 2 3 2 3 1 4 1 3 1 
3 1 3 1 4 1 3 0 3 0 3 0 4 0 3 0 
3 0 3 0 4 -1 3 0 3 -1 3 1 4 0 3 0 
3 0 4 -1 3 -1 3 -1 3 -1 4 0 3 1 3 1 
3 1 4 2 3 1 3 3 3 3 4 4 3 4 3 4 
3 5 4 4 3 4 3 3 3 4 4 3 3 3 3 3 
3 2 4 3 3 2 2617 2842 300 MP stroke
3 1 3 0 4 0 3 -1 3 -2 4 -2 3 -2 3 -3 
3 -2 4 -2 3 -3 3 -2 3 -2 4 -3 3 -3 3 -2 
3 -2 4 -2 3 -3 3 -1 3 -2 4 -1 3 0 3 -1 
3 0 4 0 3 0 3 1 3 0 4 1 3 0 3 0 
4 1 3 0 3 0 3 1 4 0 3 1 3 0 3 0 
4 1 3 1 3 0 3 1 4 0 3 0 3 1 3 0 
4 0 3 0 3 1 3 0 4 1 3 0 3 1 3 0 
4 1 3 1 3 1 3 1 4 1 3 0 3 1 4 0 
3 -1 3 0 3 -1 4 -1 3 -1 3 -1 3 -1 4 -1 
3 0 3 -1 3 -1 4 0 3 -1 3 0 3 0 4 -1 
3 0 3 0 3 -1 4 0 3 0 3 0 3 1 4 0 
3 0 3 1 3 0 4 1 3 1 3 1 4 0 3 0 
3 0 3 -2 4 -2 3 -1 3 -2 3 -1 4 -2 3 -1 
3 0 3 0 4 0 3 -1 3 0 3 -1 4 -1 3 -2 
3 -1 3 -2 4 -2 3 -1 3 -2 3 0 4 -1 3 -1 
3 -1 3 -1 4 -1 3 -1 3 -2 4 -2 3 -3 3 -3 
3 -4 4 -4 3 -3 3 -3 3 -3 4 -3 3 -4 3 -4 
3 -3 4 -3 3 -2 3 -3 3 -3 4 -2 3 -2 3 -2 
3 -2 4 -2 3 -1 3 0 3 0 4 0 3 1 3 1 
4 1 3 2 3 2 3 2 4 3 3 2 3 3 3 3 
4 4 3 2 3 4 3 2 4 3 3 2 3 2 3 2 
4 2 3 2 3 3 3 2 4 3 3 3 3 2 3 2 
4 2 3 2 3 3 3 2 4 2 3 2 3 1 4 2 
3 2 3 2 3 2 4 3 3 2 3 1 3 2 4 2 
3 2 3 2 3 1 4 1 3 1 3 0 3 0 4 1 
3 0 3 -1 3 0 4 0 3 0 3 0 3 0 4 0 
3 1 3 0 3 0 4 1 3 0 3 1 4 1 3 0 
3 1 3 1 4 0 3 0 3 0 3 -1 4 0 3 -2 
3 -1 3 -2 4 -2 3 -2 3 -3 3 -2 4 -3 3 -4 
3 -3 3 -4 4 -3 3 -4 3 -3 3 -2 4 -1 3 -2 
3 0 3 -1 4 -1 3 0 3 0 4 -1 3 0 3 -1 
3 -1 4 -1 3 -1 3 0 3 -1 4 0 3 0 3 -1 
3 0 4 -1 3 0 3 0 3 1 4 0 3 0 3 1 
3 0 4 0 3 -1 3 0 3 0 4 0 3 0 3 -1 
4 -2 3 0 3 -1 3 0 4 0 3 -1 3 0 3 1 
4 0 3 0 3 1 3 2 4 1 3 2 3 2 3 2 
4 2 3 2 3 1 3 3 4 2 3 2 3 2 3 3 
4 2 3 2 3 2 1643 2883 300 MP stroke
3 2 4 2 3 2 3 2 4 3 3 2 3 2 3 2 
4 2 3 1 3 1 3 2 4 1 3 1 3 2 3 2 
4 2 3 2 3 2 3 2 4 2 3 1 3 1 3 0 
4 0 3 0 3 0 3 -2 4 -1 3 -1 3 -2 3 -2 
4 -3 3 -3 3 -2 4 -2 3 -1 3 -1 3 -2 4 -1 
3 -1 3 -1 3 0 4 0 3 1 3 -1 3 0 4 0 
3 0 3 -1 3 0 4 -1 3 0 3 -1 3 0 4 -1 
3 -1 3 -1 3 -1 4 -1 3 -1 3 -1 3 -1 4 0 
3 -1 3 -1 4 0 3 0 3 0 3 -1 4 0 3 1 
3 0 3 1 4 0 3 1 3 1 3 0 4 2 3 2 
3 1 3 2 4 2 3 1 3 2 3 1 4 1 3 1 
3 2 3 1 4 2 3 1 3 2 4 1 3 1 3 2 
3 1 4 2 3 1 3 1 3 1 4 1 3 1 3 1 
3 1 4 2 3 1 3 2 3 2 4 2 3 3 3 2 
3 2 4 2 3 3 3 3 3 4 4 3 3 3 3 2 
3 3 4 2 3 2 3 2 4 0 3 1 3 0 3 0 
4 0 3 -1 3 -1 3 -1 4 -1 3 0 3 -1 3 0 
4 1 3 2 3 2 3 3 4 4 3 4 3 5 3 6 
4 7 3 8 3 8 3 9 4 9 3 9 3 9 3 9 
4 10 3 9 3 9 4 9 3 8 3 7 3 7 4 7 
3 6 3 5 3 5 4 5 3 4 3 5 3 4 4 5 
3 6 3 6 3 7 4 9 3 9 3 10 3 10 4 11 
3 11 3 12 3 12 4 12 3 11 3 10 3 9 4 8 
3 7 3 6 4 4 3 3 3 1 3 0 4 -1 3 -3 
3 -3 3 -4 4 -4 3 -4 3 -3 3 -1 4 1 3 3 
3 7 3 9 4 13 3 16 3 19 3 21 4 24 3 25 
3 26 3 27 4 26 3 26 3 25 4 24 3 23 3 21 
3 21 4 18 3 18 3 17 3 15 4 16 3 14 3 14 
3 14 4 14 3 14 3 14 3 15 4 14 3 14 3 14 
3 14 4 13 3 13 3 12 3 11 4 10 3 9 3 8 
3 7 4 5 3 5 3 3 4 4 3 3 3 4 3 5 
4 7 3 9 3 11 3 14 4 17 3 19 3 23 3 24 
4 27 3 27 3 29 3 28 4 28 3 27 3 26 3 24 
4 23 3 21 3 18 3 16 4 15 3 13 3 11 3 10 
4 9 3 10 3 11 4 11 3 14 3 17 3 22 4 26 
3 30 3 33 3 37 4 39 3 41 3 41 3 41 4 41 
3 38 3 37 3 35 4 32 3 30 3 26 3 24 4 21 
3 18 3 16 3 12 669 561 300 MP stroke
4 10 3 7 3 3 659 541 4 MP stroke
gr

12 w
SO
gs 562 444 4102 2560 rc
0 j
48 63 -48 63 -48 -63 48 -63 659 604 5 MP
DP
48 63 -48 63 -48 -63 48 -63 1092 2656 5 MP
DP
48 63 -48 63 -48 -63 48 -63 1525 2923 5 MP
DP
48 63 -48 63 -48 -63 48 -63 1962 2927 5 MP
DP
48 63 -48 63 -48 -63 48 -63 2395 2930 5 MP
DP
48 63 -48 63 -48 -63 48 -63 2829 2969 5 MP
DP
48 63 -48 63 -48 -63 48 -63 3262 2958 5 MP
DP
48 63 -48 63 -48 -63 48 -63 3699 2933 5 MP
DP
48 63 -48 63 -48 -63 48 -63 4132 2959 5 MP
DP
48 63 -48 63 -48 -63 48 -63 4566 2930 5 MP
DP
gr

gs 656 280 3911 3039 rc
659 541 PD
gr

gs 562 444 195 195 rc
0 j
48 63 -48 63 -48 -63 48 -63 659 604 5 MP
DP
gr

gs 656 280 3911 3039 rc
/c10 { 0.000000 1.000000 0.000000 sr} bdef
c10
4 4 3 4 3 6 4 7 3 6 3 8 3 7 4 4 
3 2 3 2 3 -1 4 -3 3 -5 3 -6 3 -7 4 -7 
3 -7 3 -8 3 -9 4 -7 3 -5 3 -3 3 2 4 2 
3 7 3 8 3 6 4 10 3 10 3 9 4 9 3 7 
3 4 3 1 4 1 3 -2 3 -4 3 -4 4 -4 3 -5 
3 -6 3 -7 4 -5 3 -6 3 -5 3 -4 4 -3 3 -2 
3 -1 3 2 4 6 3 5 3 6 3 6 4 8 3 8 
3 9 3 9 4 7 3 8 3 7 4 5 3 4 3 3 
3 2 4 0 3 -1 3 -2 3 -7 4 -8 3 -7 3 -8 
3 -9 4 -9 3 -9 3 -10 3 -7 4 -3 3 -1 3 0 
3 0 4 0 3 4 3 6 3 9 4 10 3 10 3 10 
3 8 4 8 3 9 3 6 4 6 3 4 3 1 3 2 
4 1 3 2 3 1 3 1 4 -1 3 -3 3 -5 3 -5 
4 -3 3 -3 3 -3 3 -4 4 -5 3 -8 3 -8 3 -8 
4 -10 3 -9 3 -9 3 -7 4 -4 3 -3 3 -2 3 0 
4 3 3 1 3 1 4 3 3 3 3 1 3 2 4 1 
3 2 3 2 3 3 4 5 3 6 3 6 3 5 4 5 
3 5 3 3 3 2 4 0 3 -2 3 -2 3 -3 4 -4 
3 -5 3 -5 3 -6 4 -6 3 -4 3 -4 4 -2 3 -2 
3 -2 3 0 4 -1 3 -2 3 -4 3 -4 4 -4 3 -3 
3 -1 3 4 4 4 3 4 3 3 3 3 4 0 3 -1 
3 0 3 1 4 1 3 7 3 8 3 10 4 12 3 13 
3 13 3 11 4 12 3 11 3 9 4 6 3 4 3 2 
3 0 4 -1 3 -3 3 -5 3 -6 4 -6 3 -8 3 -7 
3 -7 4 -5 3 -5 3 -3 3 -1 4 2 3 2 3 5 
3 4 4 5 3 5 3 6 3 4 4 3 3 0 3 1 
3 -4 4 -6 3 -4 3 -4 4 -6 3 -8 3 -9 3 -10 
4 -7 3 -8 3 -8 3 -4 4 -5 3 0 3 1 3 5 
4 5 3 4 3 2 3 3 4 4 3 6 3 7 3 7 
4 8 3 5 3 6 3 4 4 3 3 2 3 2 3 0 
4 0 3 -3 3 -4 4 -6 3 -3 3 -6 3 -4 4 -6 
3 -5 3 -6 3 -4 4 -3 3 -5 3 -2 3 1 4 2 
3 4 3 5 3 7 4 5 3 5 3 2 3 -4 4 -6 
3 -7 3 -8 3 -5 4 -5 3 -5 3 -6 4 -4 3 -2 
3 -2 3 -3 4 -1 3 0 3 5 3 6 4 7 3 8 
3 8 3 7 4 6 3 5 3 3 3 3 4 -1 3 0 
3 0 3 -1 4 -1 3 -2 3 -5 3 -5 4 -5 3 -5 
3 -5 3 -4 4 -1 3591 2898 300 MP stroke
3 0 3 3 4 4 3 4 3 5 3 6 4 4 3 3 
3 2 3 2 4 2 3 3 3 2 3 2 4 0 3 1 
3 2 3 -1 4 -2 3 -4 3 -2 3 -2 4 -4 3 -4 
3 -5 3 -7 4 -7 3 -8 3 -10 3 -11 4 -10 3 -7 
3 -2 4 0 3 0 3 0 3 2 4 6 3 3 3 2 
3 3 4 6 3 9 3 8 3 9 4 6 3 5 3 3 
3 3 4 1 3 -3 3 -3 3 -6 4 -7 3 -8 3 -8 
3 -9 4 -8 3 -6 3 -5 3 0 4 3 3 3 3 5 
4 6 3 4 3 2 3 0 4 1 3 1 3 0 3 -1 
4 1 3 5 3 6 3 9 4 6 3 8 3 11 3 8 
4 9 3 10 3 7 3 4 4 2 3 -2 3 -2 3 -3 
4 -6 3 -11 3 -10 4 -11 3 -12 3 -12 3 -11 4 -13 
3 -13 3 -12 3 -12 4 -13 3 -14 3 -10 3 -8 4 -4 
3 -1 3 0 3 0 4 0 3 1 3 -2 3 0 4 -1 
3 0 3 2 3 4 4 8 3 10 3 12 3 11 4 13 
3 13 3 12 4 12 3 13 3 11 3 9 4 10 3 8 
3 6 3 5 4 2 3 0 3 -3 3 -3 4 -4 3 -7 
3 -7 3 -7 4 -5 3 -2 3 -3 3 -3 4 -3 3 0 
3 -2 3 -2 4 -2 3 0 3 -1 3 -3 4 -3 3 -6 
3 -7 4 -9 3 -7 3 -3 3 2 4 3 3 5 3 6 
3 8 4 7 3 7 3 7 3 6 4 6 3 3 3 1 
3 0 4 -1 3 -2 3 -3 3 1 4 -1 3 -3 3 -3 
3 -4 4 -3 3 -1 3 -4 3 -4 4 -4 3 -5 3 -6 
4 -4 3 -4 3 -4 3 -4 4 0 3 2 3 5 3 4 
4 4 3 5 3 2 3 -1 4 -5 3 -3 3 -5 3 -5 
4 -4 3 0 3 1 3 2 4 3 3 6 3 4 3 3 
4 3 3 3 3 0 4 1 3 1 3 1 3 0 4 -2 
3 -2 3 -5 3 -5 4 -8 3 -7 3 -8 3 -9 4 -9 
3 -8 3 -7 3 -5 4 -1 3 -1 3 2 3 4 4 5 
3 8 3 9 3 9 4 9 3 6 3 5 3 3 4 5 
3 4 3 2 4 1 3 3 3 4 3 3 4 3 3 4 
3 3 3 3 4 3 3 3 3 2 3 1 4 -2 3 -5 
3 -4 3 -4 4 -2 3 -3 3 -3 3 -2 4 -1 3 0 
3 0 3 1 4 -2 3 -2 3 -1 3 2 4 4 3 5 
3 6 4 7 3 8 3 5 3 5 4 4 3 2 3 0 
3 -2 4 -2 3 -5 3 -5 3 -4 4 -3 3 -4 3 -6 
3 -8 4 -6 3 -2 3 -2 3 -1 4 1 3 2 3 4 
3 4 4 5 3 5 2617 2894 300 MP stroke
3 7 3 6 4 7 3 7 3 4 4 3 3 2 3 -1 
3 -1 4 -3 3 -5 3 -4 3 -7 4 -6 3 -5 3 -3 
3 -4 4 -3 3 -1 3 1 3 2 4 2 3 -1 3 -3 
3 -5 4 -6 3 -4 3 -3 3 -1 4 3 3 2 3 3 
4 4 3 4 3 3 3 1 4 2 3 -1 3 -2 3 -4 
4 -4 3 -5 3 -4 3 -2 4 -2 3 -4 3 -5 3 -2 
4 -1 3 -4 3 -4 3 -4 4 -6 3 -4 3 -3 3 -6 
4 -7 3 -2 3 0 3 2 4 2 3 4 3 5 4 5 
3 6 3 6 3 4 4 4 3 5 3 6 3 5 4 5 
3 4 3 5 3 3 4 3 3 3 3 3 3 2 4 3 
3 1 3 2 3 3 4 3 3 3 3 2 3 2 4 0 
3 2 3 2 3 -2 4 -2 3 -2 3 -2 4 -4 3 -3 
3 -5 3 -4 4 -5 3 -4 3 -1 3 -2 4 -4 3 -3 
3 -6 3 -3 4 -3 3 -3 3 -3 3 -2 4 -5 3 -5 
3 -6 3 -6 4 -5 3 -4 3 -4 3 -3 4 0 3 3 
3 7 3 8 4 12 3 14 3 14 4 13 3 15 3 15 
3 13 4 12 3 6 3 4 3 1 4 1 3 -4 3 -5 
3 -6 4 -7 3 -7 3 -6 3 -4 4 -4 3 -3 3 -3 
3 -3 4 -3 3 -2 3 1 3 1 4 1 3 -2 3 -3 
4 -3 3 -6 3 -6 3 -7 4 -6 3 -4 3 -4 3 -2 
4 0 3 0 3 1 3 3 4 3 3 3 3 1 3 0 
4 0 3 -1 3 -2 3 -4 4 -4 3 -4 3 -4 3 -4 
4 -4 3 -7 3 -5 3 -3 4 -2 3 0 3 3 4 6 
3 4 3 5 3 2 4 2 3 0 3 -1 3 1 4 2 
3 7 3 9 3 10 4 10 3 10 3 11 3 9 4 8 
3 9 3 7 3 4 4 4 3 3 3 0 3 -2 4 -3 
3 -2 3 -5 3 -7 4 -8 3 -6 3 -6 4 -5 3 -6 
3 -7 3 -7 4 -8 3 -8 3 -10 3 -15 4 -12 3 -11 
3 -9 3 -5 4 -3 3 1 3 3 3 7 4 7 3 4 
3 4 3 5 4 4 3 2 3 3 3 4 4 6 3 7 
3 6 3 7 4 7 3 7 3 6 4 5 3 5 3 5 
3 4 4 3 3 2 3 2 3 3 4 5 3 5 3 5 
3 3 4 4 3 4 3 1 3 1 4 0 3 -1 3 -1 
3 0 4 -1 3 0 3 -2 3 -3 4 -5 3 -5 3 -6 
4 -6 3 -5 3 -5 3 -6 4 -4 3 -4 3 -2 3 0 
4 1 3 1 3 2 3 2 4 1 3 2 3 3 3 1 
4 -1 3 -2 3 -4 3 -3 4 -7 3 -7 3 -9 3 -9 
4 -11 3 -10 3 -7 1643 2947 300 MP stroke
3 -7 4 -4 3 -4 3 -2 4 1 3 3 3 8 3 9 
4 9 3 8 3 10 3 7 4 4 3 1 3 0 3 -2 
4 -3 3 -3 3 -3 3 -4 4 -2 3 -1 3 -2 3 0 
4 0 3 0 3 -1 3 -1 4 -2 3 3 3 1 3 3 
4 2 3 -1 3 -4 4 -6 3 -10 3 -8 3 -10 4 -8 
3 -6 3 -3 3 -1 4 1 3 2 3 5 3 6 4 7 
3 8 3 10 3 8 4 8 3 8 3 7 3 4 4 2 
3 -1 3 -3 3 -4 4 -6 3 -6 3 -7 3 -7 4 -6 
3 -6 3 -7 4 -5 3 -5 3 -1 3 2 4 2 3 1 
3 -3 3 -6 4 -7 3 -7 3 -5 3 -5 4 -3 3 -4 
3 -5 3 -5 4 -1 3 3 3 7 3 11 4 14 3 14 
3 15 3 15 4 12 3 10 3 10 4 6 3 5 3 4 
3 6 4 3 3 3 3 3 3 1 4 0 3 -1 3 -4 
3 -6 4 -6 3 -8 3 -5 3 -2 4 0 3 0 3 2 
3 4 4 5 3 4 3 4 3 5 4 5 3 4 3 6 
3 6 4 6 3 4 3 3 4 1 3 -3 3 -5 3 -7 
4 -10 3 -13 3 -16 3 -14 4 -13 3 -11 3 -9 3 -7 
4 -3 3 1 3 4 3 8 4 10 3 11 3 11 3 11 
4 11 3 12 3 11 3 9 4 8 3 6 3 7 3 5 
4 4 3 1 3 -2 4 -3 3 -4 3 -5 3 -8 4 -10 
3 -10 3 -11 3 -9 4 -8 3 -8 3 -5 3 -5 4 -4 
3 1 3 2 3 4 4 4 3 5 3 3 3 0 4 -1 
3 -3 3 -6 3 -6 4 -7 3 -7 3 -8 3 -8 4 -6 
3 0 3 3 4 4 3 6 3 7 3 6 4 4 3 3 
3 2 3 -1 4 -1 3 -5 3 -3 3 -2 4 0 3 0 
3 3 3 1 4 1 3 3 3 1 3 -1 4 -2 3 0 
3 -2 3 -4 4 -1 3 -1 3 0 4 2 3 0 3 -3 
3 -2 4 -1 3 -1 3 -1 3 1 4 4 3 7 3 9 
3 10 4 10 3 11 3 9 3 8 4 7 3 5 3 6 
3 6 4 8 3 8 3 6 3 5 4 5 3 5 3 6 
3 7 4 9 3 11 3 13 4 16 3 19 3 21 3 22 
4 23 3 22 3 18 3 12 4 5 3 -1 3 -6 3 -4 
4 2 3 12 3 20 3 25 4 31 3 32 3 35 3 38 
4 47 3 56 3 63 3 66 4 74 3 71 3 70 3 58 
4 40 3 28 3 20 4 22 3 25 3 32 3 33 4 36 
3 33 3 28 3 25 4 23 3 27 3 39 3 52 4 64 
3 71 3 69 3 64 4 56 3 52 3 59 3 63 4 69 
3 66 3 61 3 51 669 701 300 MP stroke
4 38 3 26 3 9 659 628 4 MP stroke
gr

c10
gs 562 531 4102 2550 rc
0 j
-27 -20 10 -33 -29 19 -28 -19 10 33 -27 20 34 0 11 33 
12 -33 34 0 613 613 11 MP
DP
-27 -20 10 -33 -29 19 -28 -19 10 33 -27 20 34 0 11 33 
12 -33 34 0 1046 2898 11 MP
DP
-27 -20 10 -33 -29 19 -28 -19 10 33 -27 20 34 0 11 33 
12 -33 34 0 1479 2915 11 MP
DP
-27 -20 10 -33 -29 19 -28 -19 10 33 -27 20 34 0 11 33 
12 -33 34 0 1916 2839 11 MP
DP
-27 -20 10 -33 -29 19 -28 -19 10 33 -27 20 34 0 11 33 
12 -33 34 0 2349 2920 11 MP
DP
-27 -20 10 -33 -29 19 -28 -19 10 33 -27 20 34 0 11 33 
12 -33 34 0 2783 2944 11 MP
DP
-27 -20 10 -33 -29 19 -28 -19 10 33 -27 20 34 0 11 33 
12 -33 34 0 3216 2968 11 MP
DP
-27 -20 10 -33 -29 19 -28 -19 10 33 -27 20 34 0 11 33 
12 -33 34 0 3653 2873 11 MP
DP
-27 -20 10 -33 -29 19 -28 -19 10 33 -27 20 34 0 11 33 
12 -33 34 0 4086 2890 11 MP
DP
-27 -20 10 -33 -29 19 -28 -19 10 33 -27 20 34 0 11 33 
12 -33 34 0 4520 2935 11 MP
DP
gr

gs 656 280 3911 3039 rc
659 628 PD
gr

gs 562 531 195 195 rc
0 j
-27 -20 10 -33 -29 19 -28 -19 10 33 -27 20 34 0 11 33 
12 -33 34 0 613 613 11 MP
DP
gr

gs 656 280 3911 3039 rc
6 w
gr

6 w
1 sg
0 1107 2151 0 0 -1107 2292 1536 4 MP
PP
-2151 0 0 1107 2151 0 0 -1107 2292 1536 5 MP stroke
4 w
DO
SO
6 w
0 sg
2292  429 mt 4443  429 L
2292 1536 mt 4443 1536 L
4443 1536 mt 4443  429 L
2292 1536 mt 2292  429 L
2292 1536 mt 4443 1536 L
2292 1536 mt 2292  429 L
2292  429 mt 4443  429 L
2292 1536 mt 4443 1536 L
4443 1536 mt 4443  429 L
2292 1536 mt 2292  429 L
%%IncludeResource: font Times-Roman
/Times-Roman /WindowsLatin1Encoding 144 FMSR

2785  607 mt 
(LMS from [15] ) s
gs 2292 429 2152 1108 rc
12 w
c8
379 0 2367 557 2 MP stroke
gs 2460 460 195 195 rc
  48   48 2557  557 FO
gr

gr

12 w
c8
0 sg
2785  820 mt 
(RLS) s
gs 2292 429 2152 1108 rc
c9
379 0 2367 770 2 MP stroke
gs 2460 673 195 195 rc
0 j
0 -76 -76 0 0 76 76 0 2519 732 5 MP
DP
gr

gr

c9
0 sg
2785 1032 mt 
(Theoretical MSD in \(13\)) s
gs 2292 429 2152 1108 rc
DA
24 w
379 0 2367 982 2 MP stroke
SO
gr

24 w
2785 1244 mt 
(DRLS - K = 1) s
gs 2292 429 2152 1108 rc
12 w
379 0 2367 1194 2 MP stroke
gs 2460 1097 195 195 rc
0 j
48 63 -48 63 -48 -63 48 -63 2557 1257 5 MP
DP
gr

gr

12 w
2785 1457 mt 
(DRLS - K = 3) s
gs 2292 429 2152 1108 rc
c10
379 0 2367 1407 2 MP stroke
gs 2460 1310 195 195 rc
0 j
-27 -20 10 -33 -29 19 -28 -19 10 33 -27 20 34 0 11 33 
12 -33 34 0 2511 1392 11 MP
DP
gr

6 w
gr

6 w
c10

end %%Color Dict

eplot
%%EndObject

epage
end

showpage

%%Trailer
%%EOF
